…
## Usage

``` r
library(attckr)
library(hrbrthemes)
library(tidyverse)

# current version
packageVersion("attckr")
## [1] '0.2.0'
```

``` r
tidy_attack
## # A tibble: 795 x 5
##    technique          description                                                        id      matrix    tactic       
##    <chr>              <chr>                                                              <chr>   <chr>     <chr>        
##  1 .bash_profile and… "<code>~/.bash_profile</code> and <code>~/.bashrc</code> are shel… T1156   mitre-at… persistence  
##  2 Access Token Mani… "Windows uses access tokens to determine the ownership of a runni… T1134   mitre-at… defense-evas…
##  3 Access Token Mani… "Windows uses access tokens to determine the ownership of a runni… T1134   mitre-at… privilege-es…
##  4 Access Token Mani… "Windows uses access tokens to determine the ownership of a runni… CAPEC-… mitre-at… defense-evas…
##  5 Access Token Mani… "Windows uses access tokens to determine the ownership of a runni… CAPEC-… mitre-at… privilege-es…
##  6 Accessibility Fea… "Windows contains accessibility features that may be launched wit… T1015   mitre-at… persistence  
##  7 Accessibility Fea… "Windows contains accessibility features that may be launched wit… T1015   mitre-at… privilege-es…
##  8 Accessibility Fea… "Windows contains accessibility features that may be launched wit… CAPEC-… mitre-at… persistence  
##  9 Accessibility Fea… "Windows contains accessibility features that may be launched wit… CAPEC-… mitre-at… privilege-es…
## 10 Account Access Re… "Adversaries may interrupt availability of system and network res… T1531   mitre-at… impact       
## # … with 785 more rows
```
…
